Modelo ARIMA
…
# GERANDO UMA PREVISAO h = 2 passos 
caf_fc <- caf_fit %>% forecast(h = 5)
caf_fc

# A fable: 25 x 5 [1Y]
# Key:     Country, .model [5]
   Country                  .model    Year    Exports .mean
   <fct>                    <chr>    <dbl>     <dist> <dbl>
 1 Central African Republic arima210  2013   N(12, 6)  11.7
 2 Central African Republic arima210  2014 N(12, 9.4)  11.6
 3 Central African Republic arima210  2015  N(12, 12)  11.6
 4 Central African Republic arima210  2016  N(12, 14)  11.7
 5 Central African Republic arima210  2017  N(12, 17)  11.7
 6 Central African Republic arima012  2013 N(12, 6.3)  11.6
 7 Central African Republic arima012  2014  N(12, 10)  11.6
 8 Central African Republic arima012  2015  N(12, 14)  11.6
 9 Central African Republic arima012  2016  N(12, 17)  11.6
10 Central African Republic arima012  2017  N(12, 21)  11.6
# ℹ 15 more rows
…
