Primeiros passos para visualização de séries
…
Série mensal

### transformando para o formato tstible
serie_mensal <- df_auto %>%
  mutate(mes = yearmonth(Data_formatada)) %>%
  as_tsibble(index = mes) %>%
  select( mes, vendas )
serie_mensal

# A tsibble: 422 x 2 [1M]
        mes vendas
      <mth>  <dbl>
 1 1990 jan  52233
 2 1990 fev  41228
 3 1990 mar  24353
 4 1990 abr  23705
 5 1990 mai  44062
 6 1990 jun  27130
 7 1990 jul  32537
 8 1990 ago  64831
 9 1990 set  56181
10 1990 out  60823
# ℹ 412 more rows
…
Série Anual

### transformando para anual
serie_anual <- df_auto %>%
  mutate(ano = year(Data_formatada)) %>%
  group_by(ano) %>%
  summarise(vendas = sum(vendas), .groups = "drop") %>%
  as_tsibble(index = ano)
serie_anual

# A tsibble: 36 x 2 [1Y]
     ano  vendas
   <dbl>   <dbl>
 1  1990  532839
 2  1991  604400
 3  1992  606590
 4  1993  876165
 5  1994 1148367
 6  1995 1374964
 7  1996 1400029
 8  1997 1567848
 9  1998 1222749
10  1999  949032
# ℹ 26 more rows
…
